
1','1321500021852','003','นัฎธพงษ์','บุญเยี่ยม','1','19','ก.ค.','2545','16','099','20','ก.ค.','2547','สมร','099','วิใจ','099','32150037327','86','ม.1
2','1321500022271','003','วีรพล','นึกสม','1','10','พ.ย.','2545','16','099','21','พ.ย.','2545','วาด','099','เหมือน','099','32150010038','92','ม.1
3','1321500022280','003','วีรพร','นึกสม','1','10','พ.ย.','2545','16','099','21','พ.ย.','2545','วาด','099','เหมือน','099','32150010038','92','ม.1
4','1329901164490','ส.ณ.วิทยา','เหลื่อมล้ำ','1','10','ธ.ค.','2545','16','099','17','พ.ค.','2560','บุญธรรม','099','อุไร','099','32150044625','300','ม.1
5','1329901111655','003','สุนันท์','กลิ่นกันหา','1','17','มี.ค.','2545','16','099','2','มิ.ย.','2558','จันทร์','099','สมพาน','099','32100316834','8/2','ม.2
6','1329000006908','003','บุญนำ','เทศนา','1','26','ก.พ.','2545','16','099','19','มี.ค.','2545','บุญธรรม','099','เล็ก','099','32100321986','9/1','ม.2
7','1329901128329','003','วิรัตน์','ทวีวัช','1','4','มิ.ย.','2545','16','099','13','มิ.ย.','2545','บุญสม','099','เฉลา','099','32100115251','12','ม.2
8','1329901102796','003','เอกรินทร์','สวายรำ','1','27','ม.ค.','2545','17','099','18','มี.ค.','2545','สัง','099','สร้อย','099','32100115448','31','ม.2
9','1329901154176','003','อภิชาติ','ม่วงอ่อน','1','14','ต.ค.','2545','16','099','28','ต.ค.','2545','ลิ','099','วาสนา','099','32150013606','32/1','ม.2
10','1329000006355','003','โชคอนันต์','มั่นจิตร','1','10','ก.พ.','2545','17','099','25','ก.พ.','2545','ปราโมท','099','เสาว์','099','32150001365','59','ม.2
11','1328900014752','003','อนันตศักดิ์','มหาสนิท','1','9','ส.ค.','2545','16','099','14','ต.ค.','2551','แสวง','099','ก้านแก้ว','099','32150044609','71','ม.2
12','1329000006886','003','ธีรภัทร','ภูนาถา','1','9','มี.ค.','2545','16','099','28','มิ.ย.','2553','บุญมี','099','น้อย','099','32150048141','117','ม.2
13','1329000009991','003','ฉัตรชัย','จุลหงส์','1','3','ก.ย.','2545','16','099','19','ต.ค.','2552','ไพรทูลย์','099','นิตยา','099','32100116002','6','ม.3
14','1729100013996','003','อาทร','มั่นจิตร','1','8','พ.ย.','2545','16','099','7','เม.ย.','2547','บุญธรรม','099','สมมล','099','32100116215','29','ม.3
15','5321500012309','003','จอร์โจ','พินพงษ์','1','9','พ.ค.','2545','16','099','13','พ.ย.','2555','','สมพร','099','32100116274','34/1','ม.3
16','1329000007599','003','อานนท์','สมัตถะ','1','16','เม.ย.','2545','16','099','4','ก.ย.','2549','สุริยนต์','099','ไพรินทร์','099','32100190041','90','ม.3
17','1328900012008','003','เกียรติศักดิ์','ใยอิ้ม','1','17','พ.ค.','2545','16','099','29','พ.ค.','2545','ลือชา','099','วารับ','099','32100291491','93/1','ม.3
18','1139900366643','003','อนุวัต','สุโพธิ์','1','14','ม.ค.','2545','17','099','11','ม.ค.','2553','บุญรอด','099','สายม่าน','099','32100272586','101','ม.3
19','1329901107542','003','วรเชษฐ์','เฉียบกลาง','1','22','ก.พ.','2545','16','099','27','พ.ค.','2551','เทียม','099','สุข','099','32150044200','144','ม.3
20','1101801224789','003','อดิเทพ','เที่ยงไธสง','1','4','เม.ย.','2545','16','099','18','พ.ค.','2553','จุมพล','099','อุไล','099','32150047683','150','ม.3
21','1104300531088','003','จิรภาส','แพทอง','1','2','ส.ค.','2545','16','099','18','เม.ย.','2554','ขวัญใจ','099','พัชนี','099','32150049872','160','ม.3
22','1329901142763','003','ชวลิต','จุ้ยบำเพ็ญ','1','23','ส.ค.','2545','16','099','18','พ.ค.','2549','บุญช่วย','099','ลา','099','32100116690','12','ม.4
23','1329000008978','003','ธีระวัฒน์','บุดดางาม','1','2','ก.ค.','2545','16','099','19','ก.ค.','2545','ธีระศักดิ์','099','สุนันทา','099','32100176196','46','ม.4
24','1329000007858','003','ศิษย์ตรี','ม่วงละออ','1','27','เม.ย.','2545','16','099','13','พ.ค.','2545','เลย','099','หยอน','099','32100254766','48','ม.4
25','1102003425168','003','ภาณุพงศ์','สุดดี','1','18','ต.ค.','2545','16','099','9','ต.ค.','2561','จตุพงศ์','099','อรอนงค์','099','32150004852','53','ม.4
26','1329000011421','003','สันติสุข','ทองเกลี้ยง','1','15','พ.ย.','2545','16','099','28','พ.ย.','2545','พิมาย','099','จรรยา','099','32150012006','61','ม.4
27','1321500021836','003','เจษฎาภรณ์','บุญเย็น','1','6','ก.ค.','2545','16','099','12','ก.ค.','2545','วีระ','099','อิฐ','099','32100294423','52/1','ม.5
28','1328900008744','003','ทศพร','ศักดิ์สิงห์','1','4','ก.พ.','2545','17','099','10','ส.ค.','2555','สมพงศ์','099','สุภาพ','099','32150045885','53/1','ม.5
29','1104300500549','003','สิงหราช','แก้วเก้า','1','18','เม.ย.','2545','16','099','25','ต.ค.','2545','สัมพันธ์','099','จันธิดา','099','32100163701','67','ม.5
30','1321500022212','003','ณรงค์ชัย','ม่วงอ่อน','1','31','ต.ค.','2545','16','099','12','พ.ย.','2545','บุลัง','099','ณัฐธิรา','099','32100163779','74','ม.5
31','1101100257753','003','ชาคริต','ทองปัญญา','1','10','ธ.ค.','2545','16','099','18','ธ.ค.','2545','ชาตรี','099','ชะบาไพร','099','32100163884','85','ม.5
32','1328900009970','003','เพชรทวี','เขียว099','1','28','มี.ค.','2545','16','099','29','มี.ค.','2545','กิติชัย','099','ดอกรัก','099','32150000211','120','ม.5
33','1321500021933','003','จีรศักดิ์','จันทร์บัตร','1','8','ส.ค.','2545','16','099','16','ส.ค.','2545','สุริยนต์','099','สุรัตน์','099','32150009579','147','ม.5
34','1369400007448','003','ณัฐพล','ยาขามป้อม','1','17','มิ.ย.','2545','16','099','3','ก.ค.','2557','สามารถ','099','โสภา','099','32100133195','27','ม.6
35','1101501151760','003','เอกราช','ป้องภัย','1','22','ก.ค.','2545','16','099','21','ส.ค.','2545','พวงพันธ์','099','สุพิน','099','32100133268','34','ม.6
36','1321500021399','003','บุญประครอง','บุญท้าว','1','5','มี.ค.','2545','16','099','19','มี.ค.','2545','เตียง','099','สุเพียร','099','32100133446','52','ม.6
37','1328900019011','003','จักรวุฒิ','บุญทัน','1','22','ธ.ค.','2545','16','099','2','ม.ค.','2546','โกมล','099','กัญญา','099','32100291386','38/3','ม.7
38','1328900019291','003','ธนพล','ทองอ้ม','1','30','ธ.ค.','2545','16','099','16','มี.ค.','2549','หอย','099','ปราณี','099','32150040409','47','ม.7
39','1321500021712','003','สุทธิพงศ์','สีอ่อนดี','1','18','พ.ค.','2545','16','099','11','มิ.ย.','2545','บัวพิศ','099','มิ','099','32150007240','52','ม.7
40','1329000009567','003','ปรเมษฐ์','บุญทัน','1','14','ส.ค.','2545','16','099','6','ธ.ค.','2549','ชุติพนธ์','099','โฉมชบา','099','32150041995','65','ม.7
41','1328900012041','003','อภินันท์','ม่วงอ่อน','1','25','พ.ค.','2545','16','099','7','มิ.ย.','2545','อภิชาติ','099','เนาว์รัตน์','099','32100117696','73','ม.7
42','1328900018081','003','ธนากร','จันทร์ศร','1','29','พ.ย.','2545','16','099','13','ธ.ค.','2545','บุญส่ง','099','ละมัย','099','32100117700','74','ม.7
43','1321500021917','003','ธนภัทร์','อินทร์ตา','1','30','ก.ค.','2545','16','099','15','ส.ค.','2545','อัมพร','099','เพ็ญประภา','099','32109002085','94','ม.7
44','1200901323094','003','ฐิติชัย','หงษ์เวียงจันทร์','1','21','ก.ค.','2545','16','099','22','มี.ค.','2556','อดิเรก','099','เสาร์ทอง','099','32100199161','99','ม.7
45','2321500016482','003','สุรัส','เชี่ยวชาญ','1','30','เม.ย.','2545','16','099','8','ต.ค.','2557','ขันทอง','099','เกตุ','099','32100117939','7','ม.8
46','1329000008722','003','เมธัส','จันทร์เทศ','1','19','มิ.ย.','2545','16','099','1','ก.ค.','2545','เฮียะ','099','ทองจันทร์','099','32100259164','17/1','ม.8
47','1101801269138','003','ภูวนาถ','เกษี','1','10','ธ.ค.','2545','16','099','26','ธ.ค.','2545','ชาติ','099','จำเนียร','099','32100118161','29','ม.8
48','1329000008668','003','ปรรณวิสิฐ','บุญหวัง','1','12','มิ.ย.','2545','16','099','24','มิ.ย.','2545','สมศักดิ์','099','พิมมาลา','099','32100118307','44','ม.8
49','1321500022379','003','กฤษฎา','จิตรบุญ','1','9','ธ.ค.','2545','16','099','9','ธ.ค.','2545','ทวี','099','จวน','099','32150005522','76','ม.8
50','1329000008781','003','พิเชษฐ์','สอนสวัสดิ์','1','26','มิ.ย.','2545','16','099','18','พ.ค.','2550','ประสิทธิ์','099','เสมอ','099','32100119290','143','ม.8
51','1329000009842','003','ปริญญาวัฒน์','หมั่นจำรูญ','1','31','ส.ค.','2545','16','099','23','ก.พ.','2554','สมปอง','099','ทิพวรรณ','099','32150049350','244','ม.8
52','1103703434136','003','ศุภวิชญ์','ผลบูรณ์','1','23','พ.ค.','2545','16','099','9','ม.ค.','2557','ธนัญ','099','บุญจันทร์','099','32100152025','19','ม.9
53','1321500021691','003','ณัฐวุฒิ','บุตรดี','1','5','มิ.ย.','2545','16','099','10','มิ.ย.','2545','สมพบ','099','ตา','099','32100294695','29/3','ม.9
54','1329000006169','003','พงศกร','บุญชม','1','28','ม.ค.','2545','17','099','20','ก.พ.','2545','ตี๋','099','ศิรินทรา','099','32100152246','42','ม.9
55','1620601178958','003','อนิวัตต์','เที่ยงธรรม','1','25','มิ.ย.','2545','16','099','24','ม.ค.','2554','ยอด','099','อรธิตา','099','32150049155','91','ม.9
56','1104200280571','003','พนมพร','ไชยพร','1','10','ก.ค.','2545','16','099','22','ก.ค.','2545','สมเกียรติ','099','กม','099','32100133683','25','ม.10
57','1329901155601','003','ไกรวิชญ์','มานะศิริพันธ์','1','24','ต.ค.','2545','16','099','26','พ.ค.','2551','อภิศักดิ์','099','วิไลย์','099','32100199587','40','ม.10
58','1329000009575','003','ธีรพันธ์','แสงเหมาะ','1','22','ส.ค.','2545','16','099','26','ส.ค.','2545','สมพบ','099','วนิดา','099','32150000466','45','ม.10
59','1209501150492','003','วีรยุทธ','คำพล','1','15','ก.ค.','2545','16','099','25','พ.ค.','2550','บุญธรรม','099','ดารณี','099','32100152556','3','ม.11
60','1110201254830','003','นันทกานต์','บุญเติม','1','6','ธ.ค.','2545','16','099','4','ม.ค.','2546','สุข','099','สุวรรณา','099','32100152581','6','ม.11
61','1321500022492','003','นพดล','สุขกอง','1','17','พ.ย.','2545','16','099','6','ก.พ.','2546','ลอย','099','สุขจิต','099','32100153064','53','ม.11
62','1329901152467','003','นันทวัฒน์','ไตรพรม','1','6','ต.ค.','2545','16','099','17','ต.ค.','2545','คม','099','เจนจิรา','099','32100153269','73','ม.11
63','1321500021488','003','จักรินทร์','ทองอ้ม','1','6','เม.ย.','2545','16','099','18','เม.ย.','2545','ปัด','099','น้อย','099','32100251619','113','ม.11
64','1719900579498','003','ธนธรณ์','มีมงคล','1','1','เม.ย.','2545','16','099','20','พ.ค.','2551','กศิวัฒน์','099','อุไร','099','32150044196','177','ม.11
65','1379900196479','003','อดิศร','บุญมาก','1','6','ส.ค.','2545','16','099','15','ธ.ค.','2551','สวน','099','อังคนาง','099','32150044731','178','ม.11
66','1328900017361','003','ธีรภัทร','สัตตาเลิศ','1','5','พ.ย.','2545','16','099','8','พ.ย.','2545','จันดา','099','นันทิยา','099','32100265008','12/1','ม.12
67','1321500021704','003','วุฒิพงษ์','คณะวงค์','1','29','พ.ค.','2545','16','099','10','มิ.ย.','2545','บุญธรรม','099','แสวง','099','32100164121','13','ม.12
68','2329900029015','003','สนธยา','ทองขาว','1','5','ก.ค.','2545','16','099','4','มี.ค.','2546','สม1','099','เพ็ญประภา','099','32100265032','14/1','ม.12
69','1328900011206','003','ธนวันต์','จินดา','1','30','เม.ย.','2545','16','099','3','พ.ค.','2545','ปัญญา','099','วรรณา','099','32100164228','24','ม.12
70','1328900015872','003','พลวัต','ชิ้นแก้ว','1','25','ก.ย.','2545','16','099','30','ก.ย.','2545','ประดิษฐ','099','มน','099','32100312421','24/1','ม.12
71','1321500021267','003','ณัฐพล','มณีรัตน์','1','23','ม.ค.','2545','17','099','29','ม.ค.','2545','สาลี','099','พรเพ็ญ','099','32100264249','39/1','ม.12
72','1328900014744','003','ชลธี','มณีพร้าว','1','11','ส.ค.','2545','16','099','20','ส.ค.','2545','คำจันทร์','099','จง','099','32150006910','47','ม.12
73','1104300493348','003','ญาณศรณ์','สัญกลาง','1','26','มี.ค.','2545','16','099','6','ม.ค.','2549','สายัณห์','099','สำเรียง','099','32100118552','69','ม.13
74','1329000009419','003','ไชยพล','ปัดตายะโส','1','5','ส.ค.','2545','16','099','16','ส.ค.','2545','บุญศรี','099','นพเก้า','099','32100119079','121','ม.13
75','1329901100041','003','กิตติธัช','กระจ่าง','1','11','ม.ค.','2545','17','099','21','ม.ค.','2545','สำราญ','099','กนกอร','099','32100119141','128','ม.13
76','1319900848450','003','อนุชิต','สุขเพิ่ม','1','8','พ.ค.','2545','16','099','27','มี.ค.','2561','สม','099','สิ่ว','099','32100189212','177','ม.13
77','1321500021968','003','อภินันท์','ทองอ้ม','1','11','ส.ค.','2545','16','099','17','ก.พ.','2549','ประมวล','099','จันทา','099','32150040107','12','ม.14
78','1321500021593','003','หรินทร์','พิมพ์ละออ','1','10','พ.ค.','2545','16','099','16','พ.ค.','2545','ประสาน','099','จิตร','099','32100117432','47','ม.14
79','1430901300891','003','ทนงศักดิ์','มหานิน','1','7','ก.ย.','2545','16','099','28','ม.ค.','2546','คมศักดิ์','099','ดาวเรือง','099','32100285394','49/2','ม.14
80','1321500021232','003','ธนภัทร','พรมลิ','1','2','ม.ค.','2545','17','099','18','ม.ค.','2545','อ้วน','099','คนึง','099','32100265202','52/1','ม.14
81','1328900011800','003','พงษ์ศักดิ์','แสวงสุข','1','14','พ.ค.','2545','16','099','22','พ.ค.','2545','ประสิทธิ์','099','เพียง','099','32100286668','58/3','ม.14
82','1328900014124','003','อภิชาติ','ผมรี','1','14','ก.ค.','2545','16','099','27','ก.พ.','2556','อนันตศักดิ์','099','เสาร์นี','099','32100284142','63/2','ม.14
83','1328900014370','003','พลวัต','มีแก้ว','1','24','ก.ค.','2545','16','099','7','ส.ค.','2545','นัด','099','ลัย','099','32100117807','84','ม.14
84','1329000007939','003','ศุภชัย','บุญทัน','1','25','เม.ย.','2545','16','099','19','ก.ค.','2556','เด่นชัย','099','วราภรณ์','099','32150053781','86','ม.14
85','1329000007041','003','พงศกร','บุญยอม','1','6','มี.ค.','2545','16','099','9','พ.ค.','2549','สุทิศ','099','สุชิตา','099','32150040921','99','ม.14
86','1328900017808','003','ธีรไนย','งามเลิศ','1','19','พ.ย.','2545','16','099','22','พ.ย.','2545','เวียง','099','ดำ','099','32150004119','110','ม.14
87','1328900016275','003','กิตติชัย','สำโรง','1','23','ก.ย.','2545','16','099','3','ต.ค.','2545','พรสุริยา','099','ลมัย','099','32100124137','43','ม.15
88','1321500021585','003','วีรวัตร','บุญกล้า','1','8','พ.ค.','2545','16','099','16','พ.ค.','2545','คำคูณ','099','บัวสิน','099','32100314360','44/1','ม.15
89','1329901102109','003','สัภยา','บุญเหมาะ','1','24','ม.ค.','2545','17','099','1','ก.พ.','2545','ทัน','099','ปนัดดา','099','32150009340','47','ม.15
90','1321500021321','003','สิทธิโชค','บุญเสก','1','8','ก.พ.','2545','17','099','15','ม.ค.','2550','ธนชาติ','099','สุบรรณ์','099','32150042134','57','ม.15
91','1328900013055','003','สม1','บุญเต็ม','1','22','มิ.ย.','2545','16','099','2','ก.ค.','2558','มาโนช','099','กู่','099','32100124358','68','ม.15
92','1329901105558','003','ณัฐวุฒิ','จำปาสี','1','10','ก.พ.','2545','17','099','20','ก.พ.','2545','พิรักษ์','099','ยุพา','099','32100125087','141','ม.15
93','1329901105566','003','ณัฐวัตร','จำปาสี','1','10','ก.พ.','2545','17','099','20','ก.พ.','2545','พิรักษ์','099','ยุพา','099','32100125087','141','ม.15
94','1328900019053','003','คเชนทร์','แว่นดี','1','23','ธ.ค.','2545','16','099','3','ม.ค.','2546','วันชัย','099','พิกุล','099','32100125150','148','ม.15
95','1329901117904','003','คมน์ชัย','พุฒอ่อน','1','17','เม.ย.','2545','16','099','22','ส.ค.','2560','ชาญชัย','099','วิไลลักษณ์','099','32100125214','154','ม.15
96','1328900015848','003','ชาคริต','ปัญญาฉลาด','1','19','ก.ย.','2545','16','099','25','ก.ย.','2545','สถิต','099','สนอง','099','32100244388','213','ม.15
97','1328900011915','003','ณรงค์ฤทธิ์','ทองอ้ม','1','24','พ.ค.','2545','16','099','7','ธ.ค.','2553','สุธี','099','เสาวลักษณ์','099','32150048884','242','ม.15
98','1328900018197','ส.ณ.ณัฐกานต์','สุขเลิศ','1','8','ธ.ค.','2545','16','099','7','พ.ค.','2561','สวัสดิ์','099','คำหมาย','099','32150046873','299','ม.15